^C:\USERS\משתמש\HOMEWORK11-NIRZARI\HW11\HW11\HW11.CPP|C:\USERS\משתמש\HOMEWORK11-NIRZARI\HW11\HW11\MAIN.CPP|C:\USERS\משתמש\HOMEWORK11-NIRZARI\HW11\HW11\THREADS.CPP
C:\USERS\משתמש\HOMEWORK11-NIRZARI\HW11\HW11\DEBUG\VC142.PDB
C:\USERS\משתמש\HOMEWORK11-NIRZARI\HW11\HW11\DEBUG\VC142.IDB
C:\USERS\משתמש\HOMEWORK11-NIRZARI\HW11\HW11\DEBUG\THREADS.OBJ
C:\USERS\משתמש\HOMEWORK11-NIRZARI\HW11\HW11\DEBUG\MAIN.OBJ
C:\USERS\משתמש\HOMEWORK11-NIRZARI\HW11\HW11\DEBUG\HW11.OBJ
^C:\USERS\משתמש\HOMEWORK11-NIRZARI\HW11\HW11\HW11.CPP
C:\USERS\משתמש\HOMEWORK11-NIRZARI\HW11\HW11\DEBUG\VC142.PDB
C:\USERS\משתמש\HOMEWORK11-NIRZARI\HW11\HW11\DEBUG\VC142.IDB
C:\USERS\משתמש\HOMEWORK11-NIRZARI\HW11\HW11\DEBUG\HW11.OBJ
^C:\USERS\משתמש\HOMEWORK11-NIRZARI\HW11\HW11\MAIN.CPP|C:\USERS\משתמש\HOMEWORK11-NIRZARI\HW11\HW11\THREADS.CPP
C:\USERS\משתמש\HOMEWORK11-NIRZARI\HW11\HW11\DEBUG\VC142.PDB
C:\USERS\משתמש\HOMEWORK11-NIRZARI\HW11\HW11\DEBUG\VC142.IDB
C:\USERS\משתמש\HOMEWORK11-NIRZARI\HW11\HW11\DEBUG\THREADS.OBJ
C:\USERS\משתמש\HOMEWORK11-NIRZARI\HW11\HW11\DEBUG\MAIN.OBJ
^C:\USERS\משתמש\HOMEWORK11-NIRZARI\HW11\HW11\THREADS.CPP
C:\USERS\משתמש\HOMEWORK11-NIRZARI\HW11\HW11\DEBUG\VC142.PDB
C:\USERS\משתמש\HOMEWORK11-NIRZARI\HW11\HW11\DEBUG\VC142.IDB
C:\USERS\משתמש\HOMEWORK11-NIRZARI\HW11\HW11\DEBUG\THREADS.OBJ
^C:\USERS\משתמש\HOMEWORK11-NIRZARI\HW11\HW11\MAIN.CPP
C:\USERS\משתמש\HOMEWORK11-NIRZARI\HW11\HW11\DEBUG\VC142.PDB
C:\USERS\משתמש\HOMEWORK11-NIRZARI\HW11\HW11\DEBUG\VC142.IDB
C:\USERS\משתמש\HOMEWORK11-NIRZARI\HW11\HW11\DEBUG\MAIN.OBJ
