^C:\USERS\משתמש\HOMEWORK11-NIRZARI\HW11\HW11\DEBUG\HW11.OBJ|C:\USERS\משתמש\HOMEWORK11-NIRZARI\HW11\HW11\DEBUG\MAIN.OBJ|C:\USERS\משתמש\HOMEWORK11-NIRZARI\HW11\HW11\DEBUG\THREADS.OBJ
C:\USERS\משתמש\HOMEWORK11-NIRZARI\HW11\DEBUG\HW11.EXE
C:\USERS\משתמש\HOMEWORK11-NIRZARI\HW11\DEBUG\HW11.ILK
C:\USERS\משתמש\HOMEWORK11-NIRZARI\HW11\DEBUG\HW11.PDB
